{ "suppliers" :
  [
    {
      "_id": 1,
      "companyName": "Exotic Liquids",
      "contactName": "Charlotte Cooper",
      "contactTitle": "Purchasing Manager",
      "address": "49 Gilbert St.",
      "city": "London",
      "region": null,
      "postalCode": "EC1 4SD",
      "country": "UK",
      "phone": "(171) 555-2222"
    },
    {
      "_id": 2,
      "companyName": "New Orleans Cajun Delights",
      "contactName": "Shelley Burke",
      "contactTitle": "Order Administrator",
      "address": "P.O. Box 78934",
      "city": "New Orleans",
      "region": "LA",
      "postalCode": "70117",
      "country": "USA",
      "phone": "(100) 555-4822"
    },
    {
      "_id": 3,
      "companyName": "Grandma Kelly's Homestead",
      "contactName": "Regina Murphy",
      "contactTitle": "Sales Representative",
      "address": "707 Oxford Rd.",
      "city": "Ann Arbor",
      "region": "MI",
      "postalCode": "48104",
      "country": "USA",
      "phone": "(313) 555-5735"
    }
  ]
}